kalibracja_quarto
…
Analiza skośności

Ze względu na bardzo wysoką skośność prawostronną konieczne jest zastosowanie transformacji Yeo-Johnsona

numeric_cols <- train %>% select(where(is.numeric), -wd) %>% names()

skew_tbl <- train %>%
  summarise(across(all_of(numeric_cols), ~skewness(.x, na.rm = TRUE, type = 2))) %>%
  pivot_longer(everything(), names_to = "Zmienne", values_to = "Skosnosc") %>%
  arrange(desc(abs(Skosnosc)))

print(skew_tbl)

# A tibble: 26 × 2
   Zmienne    Skosnosc
   <chr>         <dbl>
 1 n_0750         9.27
 2 n_1000_c       9.06
 3 n_0500         8.87
 4 n_1000         8.49
 5 n_0500_m       8.15
 6 n_0500_c       8.15
 7 prec           7.53
 8 n_0250         6.66
 9 n_0200         2.49
10 grimm_pm10     2.16
# ℹ 16 more rows
…
to_drop <- unique(pairs_df$drop_candidate)

print(to_drop)

 [1] "n_0500_c"  "n_0200_m"  "n_0075"    "n_1000_c"  "n_0044"    "n_0140"   
 [7] "n_0140_c"  "n_0500"    "n_1000"    "n_0120"    "n_0250"    "n_0100"   
[13] "n_0200"    "n_0750"    "n_0200_mm" "n_0075_c"  "mws"       "n_0100_m" 

print(pairs_df)

# A tibble: 64 × 8
   var1      var2      corr pair             abs_corr  tgt1  tgt2 drop_candidate
   <chr>     <chr>    <dbl> <chr>               <dbl> <dbl> <dbl> <chr>         
 1 n_0500_c  n_0500_m 1     n_0500_c__n_050…    1     0.788 0.788 n_0500_c      
 2 n_0200_m  n_0250_m 1.00  n_0200_m__n_025…    1.00  0.773 0.778 n_0200_m      
 3 n_0100_m  n_0075   1.00  n_0075__n_0100_m    1.00  0.750 0.746 n_0075        
 4 n_1000_c  n_0750   0.999 n_0750__n_1000_c    0.999 0.745 0.751 n_1000_c      
 5 n_0075_c  n_0044   0.999 n_0044__n_0075_c    0.999 0.704 0.694 n_0044        
 6 n_0200_mm n_0140   0.998 n_0140__n_0200_…    0.998 0.768 0.753 n_0140        
 7 n_0140_c  n_0120   0.998 n_0120__n_0140_c    0.998 0.761 0.761 n_0140_c      
 8 n_0500_m  n_0500   0.996 n_0500__n_0500_m    0.996 0.788 0.786 n_0500        
 9 n_0500_c  n_0500   0.996 n_0500__n_0500_c    0.996 0.788 0.786 n_0500        
10 n_1000_c  n_1000   0.995 n_1000__n_1000_c    0.995 0.745 0.729 n_1000        
# ℹ 54 more rows
…
